@startuml

title __Design de l'Abstraction du Media de sérialisation__\n

  namespace fr.cnam.foad.nfa035.badges.wallet.fileutils.streaming {
    namespace media {
      namespace impl {
        class fr.cnam.foad.nfa035.badges.wallet.fileutils.streaming.media.impl.WalletFrame {
            ~ numberOfLines : long
            {static} - LOG : Logger
            - fileOutputStream : FileOutputStream
            - reader : BufferedReader
            + WalletFrame()
            + getEncodedImageInput()
            + getEncodedImageOutput()
            + getEncodedImageReader()
            + getNumberOfLines()
            + incrementLines()
        }
      }
    }
  }

  fr.cnam.foad.nfa035.badges.wallet.fileutils.streaming.media.impl.WalletFrame .up.|> fr.cnam.foad.nfa035.badges.wallet.fileutils.streaming.media.WalletFrameMedia
  fr.cnam.foad.nfa035.badges.wallet.fileutils.streaming.media.impl.WalletFrame .up.|> java.lang.AutoCloseable

  namespace fr.cnam.foad.nfa035.badges.wallet.fileutils.streaming {
    namespace media {
      interface fr.cnam.foad.nfa035.badges.wallet.fileutils.streaming.media.WalletFrameMedia {
          {abstract} + getNumberOfLines()
          {abstract} + incrementLines()
      }
    }
  }

right footer


PlantUML diagram generated by SketchIt! (https://bitbucket.org/pmesmeur/sketch.it)
For more information about this tool, please contact philippe.mesmeur@gmail.com
endfooter

@enduml


