@startuml

title __CONTEXT's Class Diagram__\n

  namespace fr.cnam.foad.nfa035.badges.gui {
    namespace context {
      class fr.cnam.foad.nfa035.badges.gui.context.ApplicationContextProvider {
          {static} + getApplicationContext()
          + setApplicationContext()
      }
    }
  }
  

  namespace fr.cnam.foad.nfa035.badges.gui {
    namespace context {
      class fr.cnam.foad.nfa035.badges.gui.context.ApplicationContextProvider.AplicationContextHolder {
          {static} - CONTEXT_PROV : InnerContextResource
          - AplicationContextHolder()
      }
    }
  }
  

  namespace fr.cnam.foad.nfa035.badges.gui {
    namespace context {
      class fr.cnam.foad.nfa035.badges.gui.context.ApplicationContextProvider.InnerContextResource {
          - context : ApplicationContext
          - InnerContextResource()
          - setContext()
      }
    }
  }
  

  fr.cnam.foad.nfa035.badges.gui.context.ApplicationContextProvider .up.|> org.springframework.context.ApplicationContextAware
  fr.cnam.foad.nfa035.badges.gui.context.ApplicationContextProvider +-down- fr.cnam.foad.nfa035.badges.gui.context.ApplicationContextProvider.AplicationContextHolder
  fr.cnam.foad.nfa035.badges.gui.context.ApplicationContextProvider +-down- fr.cnam.foad.nfa035.badges.gui.context.ApplicationContextProvider.InnerContextResource


right footer


PlantUML diagram generated by SketchIt! (https://bitbucket.org/pmesmeur/sketch.it)
For more information about this tool, please contact philippe.mesmeur@gmail.com
endfooter

@enduml
